[gd_resource type="Environment" load_steps=2 format=2]

[sub_resource type="ProceduralSky" id=1]

[resource]
background_mode = 2
background_sky = SubResource( 1 )
background_color = Color( 0.172549, 0.00392157, 0.25098, 1 )
ambient_light_color = Color( 1, 1, 1, 1 )
ambient_light_sky_contribution = 0.12
